…
## 긴 형식으로 변환하면서 단위 추가하기 {#long-format}

NonCompart 패키지의 tblNCA()함수를 사용해서 비구획분석 결과를 내면 attr로 names와 units를 등일 갖게 됩니다. 이를 long format의 tidy data로 변환하는 방법은 다음과 같습니다.


```r
left_join(as_tibble(Theoph_nca) %>% 
            gather(PPTESTCD, PPORRES, -Subject),
          tibble(PPTESTCD = attributes(Theoph_nca)$names,
                 UNIT = attributes(Theoph_nca)$units)) %>% 
  arrange(PPTESTCD)
```

```
## # A tibble: 432 x 4
##    Subject PPTESTCD PPORRES UNIT  
##    <ord>   <chr>      <dbl> <chr> 
##  1 1       AUCALL     149.  h*mg/L
##  2 2       AUCALL      91.5 h*mg/L
##  3 3       AUCALL      99.3 h*mg/L
##  4 4       AUCALL     107.  h*mg/L
##  5 5       AUCALL     121.  h*mg/L
##  6 6       AUCALL      73.8 h*mg/L
##  7 7       AUCALL      90.8 h*mg/L
##  8 8       AUCALL      88.6 h*mg/L
##  9 9       AUCALL      86.3 h*mg/L
## 10 10      AUCALL     138.  h*mg/L
## # ... with 422 more rows
```
